<?xml version="1.0" standalone="no"?>
<!DOCTYPE svg PUBLIC "-//W3C//DTD SVG 20010904//EN"
 "http://www.w3.org/TR/2001/REC-SVG-20010904/DTD/svg10.dtd">
<svg version="1.0" xmlns="http://www.w3.org/2000/svg"
 width="212.000000pt" height="210.000000pt" viewBox="0 0 212.000000 210.000000"
 preserveAspectRatio="xMidYMid meet">

<g transform="translate(0.000000,210.000000) scale(0.100000,-0.100000)"
fill="#000000" stroke="none">
<path d="M0 1050 l0 -1050 1060 0 1060 0 0 1050 0 1050 -1060 0 -1060 0 0
-1050z m2031 980 c27 -15 52 -68 46 -100 -6 -30 -441 -857 -463 -880 -13 -13
-3 -16 87 -26 96 -10 104 -13 131 -43 24 -26 28 -40 28 -87 0 -58 -9 -85 -42
-120 -12 -14 -23 -47 -29 -90 -29 -215 -107 -316 -255 -331 -45 -5 -54 -9 -54
-25 0 -57 -57 -118 -111 -118 -12 0 -36 -13 -55 -29 -119 -105 -296 -151 -454
-117 -138 29 -279 119 -349 223 -32 48 -39 53 -80 58 -132 16 -212 66 -250
156 -25 57 -51 167 -51 215 0 21 -10 42 -29 63 -50 53 -53 167 -7 210 20 19
101 39 159 41 4 0 1 12 -7 27 -16 32 -146 516 -146 544 0 48 54 99 104 99 9 0
65 -24 125 -54 l108 -55 89 94 c53 55 100 96 117 100 56 14 110 -19 122 -76 4
-16 11 -29 17 -29 6 0 45 28 87 63 110 92 126 101 163 93 18 -3 53 -23 78 -44
25 -20 53 -43 62 -50 15 -12 36 1 173 107 166 128 186 137 243 107 15 -8 38
-33 52 -55 14 -23 28 -41 33 -41 4 0 65 40 135 90 105 74 133 89 165 90 21 0
47 -5 58 -10z"/>
<path d="M1801 1819 c-85 -60 -157 -109 -160 -109 -3 0 -28 34 -55 75 -27 41
-51 75 -55 75 -3 0 -81 -59 -173 -130 -92 -72 -170 -130 -173 -130 -3 0 -40
29 -82 65 -42 36 -79 65 -84 65 -4 0 -71 -52 -148 -115 -78 -63 -145 -115
-149 -115 -5 0 -15 25 -21 57 -7 31 -18 71 -25 90 l-12 34 -94 -106 c-51 -58
-100 -105 -107 -105 -7 0 -67 27 -133 60 -66 33 -120 56 -120 51 0 -14 119
-454 124 -459 3 -2 50 34 104 82 55 47 104 86 110 86 6 0 35 -27 64 -60 29
-33 56 -59 59 -58 4 2 37 39 74 83 37 44 72 82 76 83 5 2 76 -46 158 -107 82
-61 154 -111 159 -111 5 0 29 25 53 55 24 30 49 55 55 55 6 0 27 -22 45 -50
19 -27 36 -49 39 -49 3 0 25 27 50 60 74 100 71 99 116 19 21 -39 41 -70 44
-70 7 0 423 780 419 785 -2 1 -73 -46 -158 -106z"/>
<path d="M355 936 c-5 -3 -49 -8 -97 -11 l-88 -7 0 -33 c0 -26 7 -39 28 -54
26 -18 30 -27 35 -98 14 -175 66 -264 163 -279 63 -9 250 2 294 17 81 28 135
98 165 215 8 34 24 67 36 77 66 54 157 19 173 -69 11 -54 51 -136 84 -169 48
-50 103 -66 232 -72 143 -7 181 -1 225 38 43 38 73 128 82 242 5 71 9 80 35
98 21 15 28 28 28 54 l0 33 -87 9 c-165 15 -397 8 -510 -15 -130 -28 -257 -28
-383 -1 -87 19 -387 37 -415 25z m248 -56 c73 -11 131 -35 160 -68 14 -15 19
-36 18 -81 0 -77 -28 -143 -72 -170 -70 -43 -279 -53 -335 -16 -38 25 -62 72
-74 147 -21 122 -2 157 98 184 58 16 116 17 205 4z m960 -14 c57 -23 71 -54
63 -139 -7 -81 -37 -151 -77 -180 -33 -24 -153 -33 -233 -18 -126 23 -165 65
-174 182 -5 79 7 108 61 136 78 41 281 52 360 19z"/>
<path d="M539 761 c-16 -16 -29 -39 -29 -51 0 -29 53 -80 83 -80 42 0 77 36
77 80 0 30 -6 43 -26 59 -37 29 -70 26 -105 -8z"/>
<path d="M1275 765 c-16 -15 -25 -36 -25 -55 0 -19 9 -40 25 -55 15 -16 36
-25 55 -25 19 0 40 9 55 25 16 15 25 36 25 55 0 19 -9 40 -25 55 -15 16 -36
25 -55 25 -19 0 -40 -9 -55 -25z"/>
<path d="M1283 425 c-3 -9 2 -21 12 -29 15 -11 11 -17 -42 -66 -174 -159 -416
-154 -587 12 -33 32 -65 58 -72 58 -51 0 23 -108 116 -170 77 -52 133 -71 220
-77 136 -10 254 32 349 124 49 47 55 51 67 35 12 -16 14 -16 30 0 14 14 15 21
5 49 -22 64 -82 103 -98 64z"/>
</g>
</svg>
